// Jest Snapshot v1, https://goo.gl/fbAQLP

exports[`Testing <TextCard /> component should render <TextCard /> component successfully 1`] = `
<div
  className="text-card-container"
>
  <h4>
    One title
  </h4>
  <p>
    Some text
  </p>
</div>
`;
